IOVDbTestAlg                    DEBUG in initialize()
IOVDbTestAlg                    DEBUG Found IOVRegistrationSvc 
IOVDbTestAlg                     INFO Tag to be used: COOL-TEST-001
IOVDbTestAlg                    DEBUG Event (run,ev,lb:time): [1,1:0]
IOVDbTestAlg                    DEBUG Calling printCondObjects 'online':False	1	1
IOVDbTestAlg                     INFO in printCondObjects()
IOVDbTestAlg                     INFO Retrieved IOVDbTestMDTEleMap 
IOVDbTestAlg                     INFO Found mdt element map run 0 event 0 time  45
IOVDbTestAlg                     INFO Retrieved /IOVDbTest/IOVDbTestAMDBCorrection
IOVDbTestAlg                     INFO Found amdb correction trans 1 2 3 rot 4 5 6
IOVDbTestAlg                     INFO Retrieved IOVDbTestMDTEleMapColl 
IOVDbTestAlg                     INFO Found mdt element map run 0 event 0 time  45 channel 1
IOVDbTestAlg                     INFO Found mdt element map run 0 event 0 time  55 channel 4
IOVDbTestAlg                     INFO Found mdt element map run 0 event 0 time  65 channel 7
IOVDbTestAlg                     INFO Found mdt element map run 0 event 0 time  75 channel 10
IOVDbTestAlg                     INFO Found mdt element map run 0 event 0 time  85 channel 13
IOVDbTestAlg                     INFO Found mdt element map run 0 event 0 time  95 channel 16
IOVDbTestAlg                     INFO Found mdt element map run 0 event 0 time  105 channel 19
IOVDbTestAlg                     INFO Found mdt element map run 0 event 0 time  115 channel 22
IOVDbTestAlg                     INFO Found mdt element map run 0 event 0 time  125 channel 25
IOVDbTestAlg                     INFO Found mdt element map run 0 event 0 time  135 channel 28
IOVDbTestAlg                    DEBUG Event (run,ev,lb:time): [1,2:5]
IOVDbTestAlg                    DEBUG Calling printCondObjects 'online':False	1	2
IOVDbTestAlg                     INFO in printCondObjects()
IOVDbTestAlg                     INFO Retrieved IOVDbTestMDTEleMap 
IOVDbTestAlg                     INFO Found mdt element map run 0 event 0 time  45
IOVDbTestAlg                     INFO Retrieved /IOVDbTest/IOVDbTestAMDBCorrection
IOVDbTestAlg                     INFO Found amdb correction trans 1 2 3 rot 4 5 6
IOVDbTestAlg                     INFO Retrieved IOVDbTestMDTEleMapColl 
IOVDbTestAlg                     INFO Found mdt element map run 0 event 0 time  45 channel 1
IOVDbTestAlg                     INFO Found mdt element map run 0 event 0 time  55 channel 4
IOVDbTestAlg                     INFO Found mdt element map run 0 event 0 time  65 channel 7
IOVDbTestAlg                     INFO Found mdt element map run 0 event 0 time  75 channel 10
IOVDbTestAlg                     INFO Found mdt element map run 0 event 0 time  85 channel 13
IOVDbTestAlg                     INFO Found mdt element map run 0 event 0 time  95 channel 16
IOVDbTestAlg                     INFO Found mdt element map run 0 event 0 time  105 channel 19
IOVDbTestAlg                     INFO Found mdt element map run 0 event 0 time  115 channel 22
IOVDbTestAlg                     INFO Found mdt element map run 0 event 0 time  125 channel 25
IOVDbTestAlg                     INFO Found mdt element map run 0 event 0 time  135 channel 28
IOVDbTestAlg                    DEBUG Event (run,ev,lb:time): [1,3:10]
IOVDbTestAlg                    DEBUG Calling printCondObjects 'online':False	1	3
IOVDbTestAlg                     INFO in printCondObjects()
IOVDbTestAlg                     INFO Retrieved IOVDbTestMDTEleMap 
IOVDbTestAlg                     INFO Found mdt element map run 0 event 0 time  45
IOVDbTestAlg                     INFO Retrieved /IOVDbTest/IOVDbTestAMDBCorrection
IOVDbTestAlg                     INFO Found amdb correction trans 1 2 3 rot 4 5 6
IOVDbTestAlg                     INFO Retrieved IOVDbTestMDTEleMapColl 
IOVDbTestAlg                     INFO Found mdt element map run 0 event 0 time  45 channel 1
IOVDbTestAlg                     INFO Found mdt element map run 0 event 0 time  55 channel 4
IOVDbTestAlg                     INFO Found mdt element map run 0 event 0 time  65 channel 7
IOVDbTestAlg                     INFO Found mdt element map run 0 event 0 time  75 channel 10
IOVDbTestAlg                     INFO Found mdt element map run 0 event 0 time  85 channel 13
IOVDbTestAlg                     INFO Found mdt element map run 0 event 0 time  95 channel 16
IOVDbTestAlg                     INFO Found mdt element map run 0 event 0 time  105 channel 19
IOVDbTestAlg                     INFO Found mdt element map run 0 event 0 time  115 channel 22
IOVDbTestAlg                     INFO Found mdt element map run 0 event 0 time  125 channel 25
IOVDbTestAlg                     INFO Found mdt element map run 0 event 0 time  135 channel 28
IOVDbTestAlg                    DEBUG Event (run,ev,lb:time): [1,4:15]
IOVDbTestAlg                    DEBUG Calling printCondObjects 'online':False	1	4
IOVDbTestAlg                     INFO in printCondObjects()
IOVDbTestAlg                     INFO Retrieved IOVDbTestMDTEleMap 
IOVDbTestAlg                     INFO Found mdt element map run 0 event 0 time  45
IOVDbTestAlg                     INFO Retrieved /IOVDbTest/IOVDbTestAMDBCorrection
IOVDbTestAlg                     INFO Found amdb correction trans 1 2 3 rot 4 5 6
IOVDbTestAlg                     INFO Retrieved IOVDbTestMDTEleMapColl 
IOVDbTestAlg                     INFO Found mdt element map run 0 event 0 time  45 channel 1
IOVDbTestAlg                     INFO Found mdt element map run 0 event 0 time  55 channel 4
IOVDbTestAlg                     INFO Found mdt element map run 0 event 0 time  65 channel 7
IOVDbTestAlg                     INFO Found mdt element map run 0 event 0 time  75 channel 10
IOVDbTestAlg                     INFO Found mdt element map run 0 event 0 time  85 channel 13
IOVDbTestAlg                     INFO Found mdt element map run 0 event 0 time  95 channel 16
IOVDbTestAlg                     INFO Found mdt element map run 0 event 0 time  105 channel 19
IOVDbTestAlg                     INFO Found mdt element map run 0 event 0 time  115 channel 22
IOVDbTestAlg                     INFO Found mdt element map run 0 event 0 time  125 channel 25
IOVDbTestAlg                     INFO Found mdt element map run 0 event 0 time  135 channel 28
IOVDbTestAlg                    DEBUG Event (run,ev,lb:time): [1,5:20]
IOVDbTestAlg                    DEBUG Calling printCondObjects 'online':False	1	5
IOVDbTestAlg                     INFO in printCondObjects()
IOVDbTestAlg                     INFO Retrieved IOVDbTestMDTEleMap 
IOVDbTestAlg                     INFO Found mdt element map run 0 event 0 time  45
IOVDbTestAlg                     INFO Retrieved /IOVDbTest/IOVDbTestAMDBCorrection
IOVDbTestAlg                     INFO Found amdb correction trans 1 2 3 rot 4 5 6
IOVDbTestAlg                     INFO Retrieved IOVDbTestMDTEleMapColl 
IOVDbTestAlg                     INFO Found mdt element map run 0 event 0 time  45 channel 1
IOVDbTestAlg                     INFO Found mdt element map run 0 event 0 time  55 channel 4
IOVDbTestAlg                     INFO Found mdt element map run 0 event 0 time  65 channel 7
IOVDbTestAlg                     INFO Found mdt element map run 0 event 0 time  75 channel 10
IOVDbTestAlg                     INFO Found mdt element map run 0 event 0 time  85 channel 13
IOVDbTestAlg                     INFO Found mdt element map run 0 event 0 time  95 channel 16
IOVDbTestAlg                     INFO Found mdt element map run 0 event 0 time  105 channel 19
IOVDbTestAlg                     INFO Found mdt element map run 0 event 0 time  115 channel 22
IOVDbTestAlg                     INFO Found mdt element map run 0 event 0 time  125 channel 25
IOVDbTestAlg                     INFO Found mdt element map run 0 event 0 time  135 channel 28
IOVDbTestAlg                    DEBUG Event (run,ev,lb:time): [2,1:25]
IOVDbTestAlg                    DEBUG Calling printCondObjects 'online':False	2	1
IOVDbTestAlg                     INFO in printCondObjects()
IOVDbTestAlg                     INFO Retrieved IOVDbTestMDTEleMap 
IOVDbTestAlg                     INFO Found mdt element map run 0 event 0 time  45
IOVDbTestAlg                     INFO Retrieved /IOVDbTest/IOVDbTestAMDBCorrection
IOVDbTestAlg                     INFO Found amdb correction trans 1 2 3 rot 4 5 6
IOVDbTestAlg                     INFO Retrieved IOVDbTestMDTEleMapColl 
IOVDbTestAlg                     INFO Found mdt element map run 0 event 0 time  45 channel 1
IOVDbTestAlg                     INFO Found mdt element map run 0 event 0 time  55 channel 4
IOVDbTestAlg                     INFO Found mdt element map run 0 event 0 time  65 channel 7
IOVDbTestAlg                     INFO Found mdt element map run 0 event 0 time  75 channel 10
IOVDbTestAlg                     INFO Found mdt element map run 0 event 0 time  85 channel 13
IOVDbTestAlg                     INFO Found mdt element map run 0 event 0 time  95 channel 16
IOVDbTestAlg                     INFO Found mdt element map run 0 event 0 time  105 channel 19
IOVDbTestAlg                     INFO Found mdt element map run 0 event 0 time  115 channel 22
IOVDbTestAlg                     INFO Found mdt element map run 0 event 0 time  125 channel 25
IOVDbTestAlg                     INFO Found mdt element map run 0 event 0 time  135 channel 28
IOVDbTestAlg                    DEBUG Event (run,ev,lb:time): [2,2:30]
IOVDbTestAlg                    DEBUG Calling printCondObjects 'online':False	2	2
IOVDbTestAlg                     INFO in printCondObjects()
IOVDbTestAlg                     INFO Retrieved IOVDbTestMDTEleMap 
IOVDbTestAlg                     INFO Found mdt element map run 0 event 0 time  45
IOVDbTestAlg                     INFO Retrieved /IOVDbTest/IOVDbTestAMDBCorrection
IOVDbTestAlg                     INFO Found amdb correction trans 1 2 3 rot 4 5 6
IOVDbTestAlg                     INFO Retrieved IOVDbTestMDTEleMapColl 
IOVDbTestAlg                     INFO Found mdt element map run 0 event 0 time  45 channel 1
IOVDbTestAlg                     INFO Found mdt element map run 0 event 0 time  55 channel 4
IOVDbTestAlg                     INFO Found mdt element map run 0 event 0 time  65 channel 7
IOVDbTestAlg                     INFO Found mdt element map run 0 event 0 time  75 channel 10
IOVDbTestAlg                     INFO Found mdt element map run 0 event 0 time  85 channel 13
IOVDbTestAlg                     INFO Found mdt element map run 0 event 0 time  95 channel 16
IOVDbTestAlg                     INFO Found mdt element map run 0 event 0 time  105 channel 19
IOVDbTestAlg                     INFO Found mdt element map run 0 event 0 time  115 channel 22
IOVDbTestAlg                     INFO Found mdt element map run 0 event 0 time  125 channel 25
IOVDbTestAlg                     INFO Found mdt element map run 0 event 0 time  135 channel 28
IOVDbTestAlg                    DEBUG Event (run,ev,lb:time): [2,3:35]
IOVDbTestAlg                    DEBUG Calling printCondObjects 'online':False	2	3
IOVDbTestAlg                     INFO in printCondObjects()
IOVDbTestAlg                     INFO Retrieved IOVDbTestMDTEleMap 
IOVDbTestAlg                     INFO Found mdt element map run 0 event 0 time  45
IOVDbTestAlg                     INFO Retrieved /IOVDbTest/IOVDbTestAMDBCorrection
IOVDbTestAlg                     INFO Found amdb correction trans 1 2 3 rot 4 5 6
IOVDbTestAlg                     INFO Retrieved IOVDbTestMDTEleMapColl 
IOVDbTestAlg                     INFO Found mdt element map run 0 event 0 time  45 channel 1
IOVDbTestAlg                     INFO Found mdt element map run 0 event 0 time  55 channel 4
IOVDbTestAlg                     INFO Found mdt element map run 0 event 0 time  65 channel 7
IOVDbTestAlg                     INFO Found mdt element map run 0 event 0 time  75 channel 10
IOVDbTestAlg                     INFO Found mdt element map run 0 event 0 time  85 channel 13
IOVDbTestAlg                     INFO Found mdt element map run 0 event 0 time  95 channel 16
IOVDbTestAlg                     INFO Found mdt element map run 0 event 0 time  105 channel 19
IOVDbTestAlg                     INFO Found mdt element map run 0 event 0 time  115 channel 22
IOVDbTestAlg                     INFO Found mdt element map run 0 event 0 time  125 channel 25
IOVDbTestAlg                     INFO Found mdt element map run 0 event 0 time  135 channel 28
IOVDbTestAlg                    DEBUG Event (run,ev,lb:time): [2,4:40]
IOVDbTestAlg                    DEBUG Calling printCondObjects 'online':False	2	4
IOVDbTestAlg                     INFO in printCondObjects()
IOVDbTestAlg                     INFO Retrieved IOVDbTestMDTEleMap 
IOVDbTestAlg                     INFO Found mdt element map run 0 event 0 time  45
IOVDbTestAlg                     INFO Retrieved /IOVDbTest/IOVDbTestAMDBCorrection
IOVDbTestAlg                     INFO Found amdb correction trans 1 2 3 rot 4 5 6
IOVDbTestAlg                     INFO Retrieved IOVDbTestMDTEleMapColl 
IOVDbTestAlg                     INFO Found mdt element map run 0 event 0 time  45 channel 1
IOVDbTestAlg                     INFO Found mdt element map run 0 event 0 time  55 channel 4
IOVDbTestAlg                     INFO Found mdt element map run 0 event 0 time  65 channel 7
IOVDbTestAlg                     INFO Found mdt element map run 0 event 0 time  75 channel 10
IOVDbTestAlg                     INFO Found mdt element map run 0 event 0 time  85 channel 13
IOVDbTestAlg                     INFO Found mdt element map run 0 event 0 time  95 channel 16
IOVDbTestAlg                     INFO Found mdt element map run 0 event 0 time  105 channel 19
IOVDbTestAlg                     INFO Found mdt element map run 0 event 0 time  115 channel 22
IOVDbTestAlg                     INFO Found mdt element map run 0 event 0 time  125 channel 25
IOVDbTestAlg                     INFO Found mdt element map run 0 event 0 time  135 channel 28
IOVDbTestAlg                    DEBUG Event (run,ev,lb:time): [2,5:45]
IOVDbTestAlg                    DEBUG Calling printCondObjects 'online':False	2	5
IOVDbTestAlg                     INFO in printCondObjects()
IOVDbTestAlg                     INFO Retrieved IOVDbTestMDTEleMap 
IOVDbTestAlg                     INFO Found mdt element map run 0 event 0 time  45
IOVDbTestAlg                     INFO Retrieved /IOVDbTest/IOVDbTestAMDBCorrection
IOVDbTestAlg                     INFO Found amdb correction trans 1 2 3 rot 4 5 6
IOVDbTestAlg                     INFO Retrieved IOVDbTestMDTEleMapColl 
IOVDbTestAlg                     INFO Found mdt element map run 0 event 0 time  45 channel 1
IOVDbTestAlg                     INFO Found mdt element map run 0 event 0 time  55 channel 4
IOVDbTestAlg                     INFO Found mdt element map run 0 event 0 time  65 channel 7
IOVDbTestAlg                     INFO Found mdt element map run 0 event 0 time  75 channel 10
IOVDbTestAlg                     INFO Found mdt element map run 0 event 0 time  85 channel 13
IOVDbTestAlg                     INFO Found mdt element map run 0 event 0 time  95 channel 16
IOVDbTestAlg                     INFO Found mdt element map run 0 event 0 time  105 channel 19
IOVDbTestAlg                     INFO Found mdt element map run 0 event 0 time  115 channel 22
IOVDbTestAlg                     INFO Found mdt element map run 0 event 0 time  125 channel 25
IOVDbTestAlg                     INFO Found mdt element map run 0 event 0 time  135 channel 28
IOVDbTestAlg                    DEBUG Event (run,ev,lb:time): [3,1:50]
IOVDbTestAlg                    DEBUG Calling printCondObjects 'online':False	3	1
IOVDbTestAlg                     INFO in printCondObjects()
IOVDbTestAlg                     INFO Retrieved IOVDbTestMDTEleMap 
IOVDbTestAlg                     INFO Found mdt element map run 0 event 0 time  45
IOVDbTestAlg                     INFO Retrieved /IOVDbTest/IOVDbTestAMDBCorrection
IOVDbTestAlg                     INFO Found amdb correction trans 1 2 3 rot 4 5 6
IOVDbTestAlg                     INFO Retrieved IOVDbTestMDTEleMapColl 
IOVDbTestAlg                     INFO Found mdt element map run 0 event 0 time  45 channel 1
IOVDbTestAlg                     INFO Found mdt element map run 0 event 0 time  55 channel 4
IOVDbTestAlg                     INFO Found mdt element map run 0 event 0 time  65 channel 7
IOVDbTestAlg                     INFO Found mdt element map run 0 event 0 time  75 channel 10
IOVDbTestAlg                     INFO Found mdt element map run 0 event 0 time  85 channel 13
IOVDbTestAlg                     INFO Found mdt element map run 0 event 0 time  95 channel 16
IOVDbTestAlg                     INFO Found mdt element map run 0 event 0 time  105 channel 19
IOVDbTestAlg                     INFO Found mdt element map run 0 event 0 time  115 channel 22
IOVDbTestAlg                     INFO Found mdt element map run 0 event 0 time  125 channel 25
IOVDbTestAlg                     INFO Found mdt element map run 0 event 0 time  135 channel 28
IOVDbTestAlg                    DEBUG Event (run,ev,lb:time): [3,2:55]
IOVDbTestAlg                    DEBUG Calling printCondObjects 'online':False	3	2
IOVDbTestAlg                     INFO in printCondObjects()
IOVDbTestAlg                     INFO Retrieved IOVDbTestMDTEleMap 
IOVDbTestAlg                     INFO Found mdt element map run 0 event 0 time  45
IOVDbTestAlg                     INFO Retrieved /IOVDbTest/IOVDbTestAMDBCorrection
IOVDbTestAlg                     INFO Found amdb correction trans 1 2 3 rot 4 5 6
IOVDbTestAlg                     INFO Retrieved IOVDbTestMDTEleMapColl 
IOVDbTestAlg                     INFO Found mdt element map run 0 event 0 time  45 channel 1
IOVDbTestAlg                     INFO Found mdt element map run 0 event 0 time  55 channel 4
IOVDbTestAlg                     INFO Found mdt element map run 0 event 0 time  65 channel 7
IOVDbTestAlg                     INFO Found mdt element map run 0 event 0 time  75 channel 10
IOVDbTestAlg                     INFO Found mdt element map run 0 event 0 time  85 channel 13
IOVDbTestAlg                     INFO Found mdt element map run 0 event 0 time  95 channel 16
IOVDbTestAlg                     INFO Found mdt element map run 0 event 0 time  105 channel 19
IOVDbTestAlg                     INFO Found mdt element map run 0 event 0 time  115 channel 22
IOVDbTestAlg                     INFO Found mdt element map run 0 event 0 time  125 channel 25
IOVDbTestAlg                     INFO Found mdt element map run 0 event 0 time  135 channel 28
IOVDbTestAlg                    DEBUG Event (run,ev,lb:time): [3,3:60]
IOVDbTestAlg                    DEBUG Calling printCondObjects 'online':False	3	3
IOVDbTestAlg                     INFO in printCondObjects()
IOVDbTestAlg                     INFO Retrieved IOVDbTestMDTEleMap 
IOVDbTestAlg                     INFO Found mdt element map run 0 event 0 time  45
IOVDbTestAlg                     INFO Retrieved /IOVDbTest/IOVDbTestAMDBCorrection
IOVDbTestAlg                     INFO Found amdb correction trans 1 2 3 rot 4 5 6
IOVDbTestAlg                     INFO Retrieved IOVDbTestMDTEleMapColl 
IOVDbTestAlg                     INFO Found mdt element map run 0 event 0 time  45 channel 1
IOVDbTestAlg                     INFO Found mdt element map run 0 event 0 time  55 channel 4
IOVDbTestAlg                     INFO Found mdt element map run 0 event 0 time  65 channel 7
IOVDbTestAlg                     INFO Found mdt element map run 0 event 0 time  75 channel 10
IOVDbTestAlg                     INFO Found mdt element map run 0 event 0 time  85 channel 13
IOVDbTestAlg                     INFO Found mdt element map run 0 event 0 time  95 channel 16
IOVDbTestAlg                     INFO Found mdt element map run 0 event 0 time  105 channel 19
IOVDbTestAlg                     INFO Found mdt element map run 0 event 0 time  115 channel 22
IOVDbTestAlg                     INFO Found mdt element map run 0 event 0 time  125 channel 25
IOVDbTestAlg                     INFO Found mdt element map run 0 event 0 time  135 channel 28
IOVDbTestAlg                    DEBUG Event (run,ev,lb:time): [3,4:65]
IOVDbTestAlg                    DEBUG Calling printCondObjects 'online':False	3	4
IOVDbTestAlg                     INFO in printCondObjects()
IOVDbTestAlg                     INFO Retrieved IOVDbTestMDTEleMap 
IOVDbTestAlg                     INFO Found mdt element map run 0 event 0 time  45
IOVDbTestAlg                     INFO Retrieved /IOVDbTest/IOVDbTestAMDBCorrection
IOVDbTestAlg                     INFO Found amdb correction trans 1 2 3 rot 4 5 6
IOVDbTestAlg                     INFO Retrieved IOVDbTestMDTEleMapColl 
IOVDbTestAlg                     INFO Found mdt element map run 0 event 0 time  45 channel 1
IOVDbTestAlg                     INFO Found mdt element map run 0 event 0 time  55 channel 4
IOVDbTestAlg                     INFO Found mdt element map run 0 event 0 time  65 channel 7
IOVDbTestAlg                     INFO Found mdt element map run 0 event 0 time  75 channel 10
IOVDbTestAlg                     INFO Found mdt element map run 0 event 0 time  85 channel 13
IOVDbTestAlg                     INFO Found mdt element map run 0 event 0 time  95 channel 16
IOVDbTestAlg                     INFO Found mdt element map run 0 event 0 time  105 channel 19
IOVDbTestAlg                     INFO Found mdt element map run 0 event 0 time  115 channel 22
IOVDbTestAlg                     INFO Found mdt element map run 0 event 0 time  125 channel 25
IOVDbTestAlg                     INFO Found mdt element map run 0 event 0 time  135 channel 28
IOVDbTestAlg                    DEBUG Event (run,ev,lb:time): [3,5:70]
IOVDbTestAlg                    DEBUG Calling printCondObjects 'online':False	3	5
IOVDbTestAlg                     INFO in printCondObjects()
IOVDbTestAlg                     INFO Retrieved IOVDbTestMDTEleMap 
IOVDbTestAlg                     INFO Found mdt element map run 0 event 0 time  45
IOVDbTestAlg                     INFO Retrieved /IOVDbTest/IOVDbTestAMDBCorrection
IOVDbTestAlg                     INFO Found amdb correction trans 1 2 3 rot 4 5 6
IOVDbTestAlg                     INFO Retrieved IOVDbTestMDTEleMapColl 
IOVDbTestAlg                     INFO Found mdt element map run 0 event 0 time  45 channel 1
IOVDbTestAlg                     INFO Found mdt element map run 0 event 0 time  55 channel 4
IOVDbTestAlg                     INFO Found mdt element map run 0 event 0 time  65 channel 7
IOVDbTestAlg                     INFO Found mdt element map run 0 event 0 time  75 channel 10
IOVDbTestAlg                     INFO Found mdt element map run 0 event 0 time  85 channel 13
IOVDbTestAlg                     INFO Found mdt element map run 0 event 0 time  95 channel 16
IOVDbTestAlg                     INFO Found mdt element map run 0 event 0 time  105 channel 19
IOVDbTestAlg                     INFO Found mdt element map run 0 event 0 time  115 channel 22
IOVDbTestAlg                     INFO Found mdt element map run 0 event 0 time  125 channel 25
IOVDbTestAlg                     INFO Found mdt element map run 0 event 0 time  135 channel 28
IOVDbTestAlg                    DEBUG Event (run,ev,lb:time): [4,1:75]
IOVDbTestAlg                    DEBUG Calling printCondObjects 'online':False	4	1
IOVDbTestAlg                     INFO in printCondObjects()
IOVDbTestAlg                     INFO Retrieved IOVDbTestMDTEleMap 
IOVDbTestAlg                     INFO Found mdt element map run 0 event 0 time  45
IOVDbTestAlg                     INFO Retrieved /IOVDbTest/IOVDbTestAMDBCorrection
IOVDbTestAlg                     INFO Found amdb correction trans 1 2 3 rot 4 5 6
IOVDbTestAlg                     INFO Retrieved IOVDbTestMDTEleMapColl 
IOVDbTestAlg                     INFO Found mdt element map run 0 event 0 time  45 channel 1
IOVDbTestAlg                     INFO Found mdt element map run 0 event 0 time  55 channel 4
IOVDbTestAlg                     INFO Found mdt element map run 0 event 0 time  65 channel 7
IOVDbTestAlg                     INFO Found mdt element map run 0 event 0 time  75 channel 10
IOVDbTestAlg                     INFO Found mdt element map run 0 event 0 time  85 channel 13
IOVDbTestAlg                     INFO Found mdt element map run 0 event 0 time  95 channel 16
IOVDbTestAlg                     INFO Found mdt element map run 0 event 0 time  105 channel 19
IOVDbTestAlg                     INFO Found mdt element map run 0 event 0 time  115 channel 22
IOVDbTestAlg                     INFO Found mdt element map run 0 event 0 time  125 channel 25
IOVDbTestAlg                     INFO Found mdt element map run 0 event 0 time  135 channel 28
IOVDbTestAlg                    DEBUG Event (run,ev,lb:time): [4,2:80]
IOVDbTestAlg                    DEBUG Calling printCondObjects 'online':False	4	2
IOVDbTestAlg                     INFO in printCondObjects()
IOVDbTestAlg                     INFO Retrieved IOVDbTestMDTEleMap 
IOVDbTestAlg                     INFO Found mdt element map run 0 event 0 time  45
IOVDbTestAlg                     INFO Retrieved /IOVDbTest/IOVDbTestAMDBCorrection
IOVDbTestAlg                     INFO Found amdb correction trans 1 2 3 rot 4 5 6
IOVDbTestAlg                     INFO Retrieved IOVDbTestMDTEleMapColl 
IOVDbTestAlg                     INFO Found mdt element map run 0 event 0 time  45 channel 1
IOVDbTestAlg                     INFO Found mdt element map run 0 event 0 time  55 channel 4
IOVDbTestAlg                     INFO Found mdt element map run 0 event 0 time  65 channel 7
IOVDbTestAlg                     INFO Found mdt element map run 0 event 0 time  75 channel 10
IOVDbTestAlg                     INFO Found mdt element map run 0 event 0 time  85 channel 13
IOVDbTestAlg                     INFO Found mdt element map run 0 event 0 time  95 channel 16
IOVDbTestAlg                     INFO Found mdt element map run 0 event 0 time  105 channel 19
IOVDbTestAlg                     INFO Found mdt element map run 0 event 0 time  115 channel 22
IOVDbTestAlg                     INFO Found mdt element map run 0 event 0 time  125 channel 25
IOVDbTestAlg                     INFO Found mdt element map run 0 event 0 time  135 channel 28
IOVDbTestAlg                    DEBUG Event (run,ev,lb:time): [4,3:85]
IOVDbTestAlg                    DEBUG Calling printCondObjects 'online':False	4	3
IOVDbTestAlg                     INFO in printCondObjects()
IOVDbTestAlg                     INFO Retrieved IOVDbTestMDTEleMap 
IOVDbTestAlg                     INFO Found mdt element map run 0 event 0 time  45
IOVDbTestAlg                     INFO Retrieved /IOVDbTest/IOVDbTestAMDBCorrection
IOVDbTestAlg                     INFO Found amdb correction trans 1 2 3 rot 4 5 6
IOVDbTestAlg                     INFO Retrieved IOVDbTestMDTEleMapColl 
IOVDbTestAlg                     INFO Found mdt element map run 0 event 0 time  45 channel 1
IOVDbTestAlg                     INFO Found mdt element map run 0 event 0 time  55 channel 4
IOVDbTestAlg                     INFO Found mdt element map run 0 event 0 time  65 channel 7
IOVDbTestAlg                     INFO Found mdt element map run 0 event 0 time  75 channel 10
IOVDbTestAlg                     INFO Found mdt element map run 0 event 0 time  85 channel 13
IOVDbTestAlg                     INFO Found mdt element map run 0 event 0 time  95 channel 16
IOVDbTestAlg                     INFO Found mdt element map run 0 event 0 time  105 channel 19
IOVDbTestAlg                     INFO Found mdt element map run 0 event 0 time  115 channel 22
IOVDbTestAlg                     INFO Found mdt element map run 0 event 0 time  125 channel 25
IOVDbTestAlg                     INFO Found mdt element map run 0 event 0 time  135 channel 28
IOVDbTestAlg                    DEBUG Event (run,ev,lb:time): [4,4:90]
IOVDbTestAlg                    DEBUG Calling printCondObjects 'online':False	4	4
IOVDbTestAlg                     INFO in printCondObjects()
IOVDbTestAlg                     INFO Retrieved IOVDbTestMDTEleMap 
IOVDbTestAlg                     INFO Found mdt element map run 0 event 0 time  45
IOVDbTestAlg                     INFO Retrieved /IOVDbTest/IOVDbTestAMDBCorrection
IOVDbTestAlg                     INFO Found amdb correction trans 1 2 3 rot 4 5 6
IOVDbTestAlg                     INFO Retrieved IOVDbTestMDTEleMapColl 
IOVDbTestAlg                     INFO Found mdt element map run 0 event 0 time  45 channel 1
IOVDbTestAlg                     INFO Found mdt element map run 0 event 0 time  55 channel 4
IOVDbTestAlg                     INFO Found mdt element map run 0 event 0 time  65 channel 7
IOVDbTestAlg                     INFO Found mdt element map run 0 event 0 time  75 channel 10
IOVDbTestAlg                     INFO Found mdt element map run 0 event 0 time  85 channel 13
IOVDbTestAlg                     INFO Found mdt element map run 0 event 0 time  95 channel 16
IOVDbTestAlg                     INFO Found mdt element map run 0 event 0 time  105 channel 19
IOVDbTestAlg                     INFO Found mdt element map run 0 event 0 time  115 channel 22
IOVDbTestAlg                     INFO Found mdt element map run 0 event 0 time  125 channel 25
IOVDbTestAlg                     INFO Found mdt element map run 0 event 0 time  135 channel 28
IOVDbTestAlg                    DEBUG Event (run,ev,lb:time): [4,5:95]
IOVDbTestAlg                    DEBUG Calling printCondObjects 'online':False	4	5
IOVDbTestAlg                     INFO in printCondObjects()
IOVDbTestAlg                     INFO Retrieved IOVDbTestMDTEleMap 
IOVDbTestAlg                     INFO Found mdt element map run 0 event 0 time  45
IOVDbTestAlg                     INFO Retrieved /IOVDbTest/IOVDbTestAMDBCorrection
IOVDbTestAlg                     INFO Found amdb correction trans 1 2 3 rot 4 5 6
IOVDbTestAlg                     INFO Retrieved IOVDbTestMDTEleMapColl 
IOVDbTestAlg                     INFO Found mdt element map run 0 event 0 time  45 channel 1
IOVDbTestAlg                     INFO Found mdt element map run 0 event 0 time  55 channel 4
IOVDbTestAlg                     INFO Found mdt element map run 0 event 0 time  65 channel 7
IOVDbTestAlg                     INFO Found mdt element map run 0 event 0 time  75 channel 10
IOVDbTestAlg                     INFO Found mdt element map run 0 event 0 time  85 channel 13
IOVDbTestAlg                     INFO Found mdt element map run 0 event 0 time  95 channel 16
IOVDbTestAlg                     INFO Found mdt element map run 0 event 0 time  105 channel 19
IOVDbTestAlg                     INFO Found mdt element map run 0 event 0 time  115 channel 22
IOVDbTestAlg                     INFO Found mdt element map run 0 event 0 time  125 channel 25
IOVDbTestAlg                     INFO Found mdt element map run 0 event 0 time  135 channel 28
IOVDbTestAlg                    DEBUG Event (run,ev,lb:time): [5,1:100]
IOVDbTestAlg                    DEBUG Calling printCondObjects 'online':False	5	1
IOVDbTestAlg                     INFO in printCondObjects()
IOVDbTestAlg                     INFO Retrieved IOVDbTestMDTEleMap 
IOVDbTestAlg                     INFO Found mdt element map run 0 event 0 time  45
IOVDbTestAlg                     INFO Retrieved /IOVDbTest/IOVDbTestAMDBCorrection
IOVDbTestAlg                     INFO Found amdb correction trans 1 2 3 rot 4 5 6
IOVDbTestAlg                     INFO Retrieved IOVDbTestMDTEleMapColl 
IOVDbTestAlg                     INFO Found mdt element map run 0 event 0 time  45 channel 1
IOVDbTestAlg                     INFO Found mdt element map run 0 event 0 time  55 channel 4
IOVDbTestAlg                     INFO Found mdt element map run 0 event 0 time  65 channel 7
IOVDbTestAlg                     INFO Found mdt element map run 0 event 0 time  75 channel 10
IOVDbTestAlg                     INFO Found mdt element map run 0 event 0 time  85 channel 13
IOVDbTestAlg                     INFO Found mdt element map run 0 event 0 time  95 channel 16
IOVDbTestAlg                     INFO Found mdt element map run 0 event 0 time  105 channel 19
IOVDbTestAlg                     INFO Found mdt element map run 0 event 0 time  115 channel 22
IOVDbTestAlg                     INFO Found mdt element map run 0 event 0 time  125 channel 25
IOVDbTestAlg                     INFO Found mdt element map run 0 event 0 time  135 channel 28
IOVDbTestAlg                    DEBUG Event (run,ev,lb:time): [5,2:105]
IOVDbTestAlg                    DEBUG Calling printCondObjects 'online':False	5	2
IOVDbTestAlg                     INFO in printCondObjects()
IOVDbTestAlg                     INFO Retrieved IOVDbTestMDTEleMap 
IOVDbTestAlg                     INFO Found mdt element map run 0 event 0 time  45
IOVDbTestAlg                     INFO Retrieved /IOVDbTest/IOVDbTestAMDBCorrection
IOVDbTestAlg                     INFO Found amdb correction trans 1 2 3 rot 4 5 6
IOVDbTestAlg                     INFO Retrieved IOVDbTestMDTEleMapColl 
IOVDbTestAlg                     INFO Found mdt element map run 0 event 0 time  45 channel 1
IOVDbTestAlg                     INFO Found mdt element map run 0 event 0 time  55 channel 4
IOVDbTestAlg                     INFO Found mdt element map run 0 event 0 time  65 channel 7
IOVDbTestAlg                     INFO Found mdt element map run 0 event 0 time  75 channel 10
IOVDbTestAlg                     INFO Found mdt element map run 0 event 0 time  85 channel 13
IOVDbTestAlg                     INFO Found mdt element map run 0 event 0 time  95 channel 16
IOVDbTestAlg                     INFO Found mdt element map run 0 event 0 time  105 channel 19
IOVDbTestAlg                     INFO Found mdt element map run 0 event 0 time  115 channel 22
IOVDbTestAlg                     INFO Found mdt element map run 0 event 0 time  125 channel 25
IOVDbTestAlg                     INFO Found mdt element map run 0 event 0 time  135 channel 28
IOVDbTestAlg                    DEBUG Event (run,ev,lb:time): [5,3:110]
IOVDbTestAlg                    DEBUG Calling printCondObjects 'online':False	5	3
IOVDbTestAlg                     INFO in printCondObjects()
IOVDbTestAlg                     INFO Retrieved IOVDbTestMDTEleMap 
IOVDbTestAlg                     INFO Found mdt element map run 0 event 0 time  45
IOVDbTestAlg                     INFO Retrieved /IOVDbTest/IOVDbTestAMDBCorrection
IOVDbTestAlg                     INFO Found amdb correction trans 1 2 3 rot 4 5 6
IOVDbTestAlg                     INFO Retrieved IOVDbTestMDTEleMapColl 
IOVDbTestAlg                     INFO Found mdt element map run 0 event 0 time  45 channel 1
IOVDbTestAlg                     INFO Found mdt element map run 0 event 0 time  55 channel 4
IOVDbTestAlg                     INFO Found mdt element map run 0 event 0 time  65 channel 7
IOVDbTestAlg                     INFO Found mdt element map run 0 event 0 time  75 channel 10
IOVDbTestAlg                     INFO Found mdt element map run 0 event 0 time  85 channel 13
IOVDbTestAlg                     INFO Found mdt element map run 0 event 0 time  95 channel 16
IOVDbTestAlg                     INFO Found mdt element map run 0 event 0 time  105 channel 19
IOVDbTestAlg                     INFO Found mdt element map run 0 event 0 time  115 channel 22
IOVDbTestAlg                     INFO Found mdt element map run 0 event 0 time  125 channel 25
IOVDbTestAlg                     INFO Found mdt element map run 0 event 0 time  135 channel 28
IOVDbTestAlg                    DEBUG Event (run,ev,lb:time): [5,4:115]
IOVDbTestAlg                    DEBUG Calling printCondObjects 'online':False	5	4
IOVDbTestAlg                     INFO in printCondObjects()
IOVDbTestAlg                     INFO Retrieved IOVDbTestMDTEleMap 
IOVDbTestAlg                     INFO Found mdt element map run 0 event 0 time  45
IOVDbTestAlg                     INFO Retrieved /IOVDbTest/IOVDbTestAMDBCorrection
IOVDbTestAlg                     INFO Found amdb correction trans 1 2 3 rot 4 5 6
IOVDbTestAlg                     INFO Retrieved IOVDbTestMDTEleMapColl 
IOVDbTestAlg                     INFO Found mdt element map run 0 event 0 time  45 channel 1
IOVDbTestAlg                     INFO Found mdt element map run 0 event 0 time  55 channel 4
IOVDbTestAlg                     INFO Found mdt element map run 0 event 0 time  65 channel 7
IOVDbTestAlg                     INFO Found mdt element map run 0 event 0 time  75 channel 10
IOVDbTestAlg                     INFO Found mdt element map run 0 event 0 time  85 channel 13
IOVDbTestAlg                     INFO Found mdt element map run 0 event 0 time  95 channel 16
IOVDbTestAlg                     INFO Found mdt element map run 0 event 0 time  105 channel 19
IOVDbTestAlg                     INFO Found mdt element map run 0 event 0 time  115 channel 22
IOVDbTestAlg                     INFO Found mdt element map run 0 event 0 time  125 channel 25
IOVDbTestAlg                     INFO Found mdt element map run 0 event 0 time  135 channel 28
IOVDbTestAlg                    DEBUG Event (run,ev,lb:time): [5,5:120]
IOVDbTestAlg                    DEBUG Calling printCondObjects 'online':False	5	5
IOVDbTestAlg                     INFO in printCondObjects()
IOVDbTestAlg                     INFO Retrieved IOVDbTestMDTEleMap 
IOVDbTestAlg                     INFO Found mdt element map run 0 event 0 time  45
IOVDbTestAlg                     INFO Retrieved /IOVDbTest/IOVDbTestAMDBCorrection
IOVDbTestAlg                     INFO Found amdb correction trans 1 2 3 rot 4 5 6
IOVDbTestAlg                     INFO Retrieved IOVDbTestMDTEleMapColl 
IOVDbTestAlg                     INFO Found mdt element map run 0 event 0 time  45 channel 1
IOVDbTestAlg                     INFO Found mdt element map run 0 event 0 time  55 channel 4
IOVDbTestAlg                     INFO Found mdt element map run 0 event 0 time  65 channel 7
IOVDbTestAlg                     INFO Found mdt element map run 0 event 0 time  75 channel 10
IOVDbTestAlg                     INFO Found mdt element map run 0 event 0 time  85 channel 13
IOVDbTestAlg                     INFO Found mdt element map run 0 event 0 time  95 channel 16
IOVDbTestAlg                     INFO Found mdt element map run 0 event 0 time  105 channel 19
IOVDbTestAlg                     INFO Found mdt element map run 0 event 0 time  115 channel 22
IOVDbTestAlg                     INFO Found mdt element map run 0 event 0 time  125 channel 25
IOVDbTestAlg                     INFO Found mdt element map run 0 event 0 time  135 channel 28
IOVDbTestAlg                    DEBUG Event (run,ev,lb:time): [6,1:125]
IOVDbTestAlg                    DEBUG Calling printCondObjects 'online':False	6	1
IOVDbTestAlg                     INFO in printCondObjects()
IOVDbTestAlg                     INFO Retrieved IOVDbTestMDTEleMap 
IOVDbTestAlg                     INFO Found mdt element map run 0 event 0 time  45
IOVDbTestAlg                     INFO Retrieved /IOVDbTest/IOVDbTestAMDBCorrection
IOVDbTestAlg                     INFO Found amdb correction trans 1 2 3 rot 4 5 6
IOVDbTestAlg                     INFO Retrieved IOVDbTestMDTEleMapColl 
IOVDbTestAlg                     INFO Found mdt element map run 0 event 0 time  45 channel 1
IOVDbTestAlg                     INFO Found mdt element map run 0 event 0 time  55 channel 4
IOVDbTestAlg                     INFO Found mdt element map run 0 event 0 time  65 channel 7
IOVDbTestAlg                     INFO Found mdt element map run 0 event 0 time  75 channel 10
IOVDbTestAlg                     INFO Found mdt element map run 0 event 0 time  85 channel 13
IOVDbTestAlg                     INFO Found mdt element map run 0 event 0 time  95 channel 16
IOVDbTestAlg                     INFO Found mdt element map run 0 event 0 time  105 channel 19
IOVDbTestAlg                     INFO Found mdt element map run 0 event 0 time  115 channel 22
IOVDbTestAlg                     INFO Found mdt element map run 0 event 0 time  125 channel 25
IOVDbTestAlg                     INFO Found mdt element map run 0 event 0 time  135 channel 28
IOVDbTestAlg                    DEBUG Event (run,ev,lb:time): [6,2:130]
IOVDbTestAlg                    DEBUG Calling printCondObjects 'online':False	6	2
IOVDbTestAlg                     INFO in printCondObjects()
IOVDbTestAlg                     INFO Retrieved IOVDbTestMDTEleMap 
IOVDbTestAlg                     INFO Found mdt element map run 0 event 0 time  45
IOVDbTestAlg                     INFO Retrieved /IOVDbTest/IOVDbTestAMDBCorrection
IOVDbTestAlg                     INFO Found amdb correction trans 1 2 3 rot 4 5 6
IOVDbTestAlg                     INFO Retrieved IOVDbTestMDTEleMapColl 
IOVDbTestAlg                     INFO Found mdt element map run 0 event 0 time  45 channel 1
IOVDbTestAlg                     INFO Found mdt element map run 0 event 0 time  55 channel 4
IOVDbTestAlg                     INFO Found mdt element map run 0 event 0 time  65 channel 7
IOVDbTestAlg                     INFO Found mdt element map run 0 event 0 time  75 channel 10
IOVDbTestAlg                     INFO Found mdt element map run 0 event 0 time  85 channel 13
IOVDbTestAlg                     INFO Found mdt element map run 0 event 0 time  95 channel 16
IOVDbTestAlg                     INFO Found mdt element map run 0 event 0 time  105 channel 19
IOVDbTestAlg                     INFO Found mdt element map run 0 event 0 time  115 channel 22
IOVDbTestAlg                     INFO Found mdt element map run 0 event 0 time  125 channel 25
IOVDbTestAlg                     INFO Found mdt element map run 0 event 0 time  135 channel 28
IOVDbTestAlg                    DEBUG Event (run,ev,lb:time): [6,3:135]
IOVDbTestAlg                    DEBUG Calling printCondObjects 'online':False	6	3
IOVDbTestAlg                     INFO in printCondObjects()
IOVDbTestAlg                     INFO Retrieved IOVDbTestMDTEleMap 
IOVDbTestAlg                     INFO Found mdt element map run 0 event 0 time  45
IOVDbTestAlg                     INFO Retrieved /IOVDbTest/IOVDbTestAMDBCorrection
IOVDbTestAlg                     INFO Found amdb correction trans 1 2 3 rot 4 5 6
IOVDbTestAlg                     INFO Retrieved IOVDbTestMDTEleMapColl 
IOVDbTestAlg                     INFO Found mdt element map run 0 event 0 time  45 channel 1
IOVDbTestAlg                     INFO Found mdt element map run 0 event 0 time  55 channel 4
IOVDbTestAlg                     INFO Found mdt element map run 0 event 0 time  65 channel 7
IOVDbTestAlg                     INFO Found mdt element map run 0 event 0 time  75 channel 10
IOVDbTestAlg                     INFO Found mdt element map run 0 event 0 time  85 channel 13
IOVDbTestAlg                     INFO Found mdt element map run 0 event 0 time  95 channel 16
IOVDbTestAlg                     INFO Found mdt element map run 0 event 0 time  105 channel 19
IOVDbTestAlg                     INFO Found mdt element map run 0 event 0 time  115 channel 22
IOVDbTestAlg                     INFO Found mdt element map run 0 event 0 time  125 channel 25
IOVDbTestAlg                     INFO Found mdt element map run 0 event 0 time  135 channel 28
IOVDbTestAlg                    DEBUG Event (run,ev,lb:time): [6,4:140]
IOVDbTestAlg                    DEBUG Calling printCondObjects 'online':False	6	4
IOVDbTestAlg                     INFO in printCondObjects()
IOVDbTestAlg                     INFO Retrieved IOVDbTestMDTEleMap 
IOVDbTestAlg                     INFO Found mdt element map run 0 event 0 time  45
IOVDbTestAlg                     INFO Retrieved /IOVDbTest/IOVDbTestAMDBCorrection
IOVDbTestAlg                     INFO Found amdb correction trans 1 2 3 rot 4 5 6
IOVDbTestAlg                     INFO Retrieved IOVDbTestMDTEleMapColl 
IOVDbTestAlg                     INFO Found mdt element map run 0 event 0 time  45 channel 1
IOVDbTestAlg                     INFO Found mdt element map run 0 event 0 time  55 channel 4
IOVDbTestAlg                     INFO Found mdt element map run 0 event 0 time  65 channel 7
IOVDbTestAlg                     INFO Found mdt element map run 0 event 0 time  75 channel 10
IOVDbTestAlg                     INFO Found mdt element map run 0 event 0 time  85 channel 13
IOVDbTestAlg                     INFO Found mdt element map run 0 event 0 time  95 channel 16
IOVDbTestAlg                     INFO Found mdt element map run 0 event 0 time  105 channel 19
IOVDbTestAlg                     INFO Found mdt element map run 0 event 0 time  115 channel 22
IOVDbTestAlg                     INFO Found mdt element map run 0 event 0 time  125 channel 25
IOVDbTestAlg                     INFO Found mdt element map run 0 event 0 time  135 channel 28
IOVDbTestAlg                    DEBUG Event (run,ev,lb:time): [6,5:145]
IOVDbTestAlg                    DEBUG Calling printCondObjects 'online':False	6	5
IOVDbTestAlg                     INFO in printCondObjects()
IOVDbTestAlg                     INFO Retrieved IOVDbTestMDTEleMap 
IOVDbTestAlg                     INFO Found mdt element map run 0 event 0 time  45
IOVDbTestAlg                     INFO Retrieved /IOVDbTest/IOVDbTestAMDBCorrection
IOVDbTestAlg                     INFO Found amdb correction trans 1 2 3 rot 4 5 6
IOVDbTestAlg                     INFO Retrieved IOVDbTestMDTEleMapColl 
IOVDbTestAlg                     INFO Found mdt element map run 0 event 0 time  45 channel 1
IOVDbTestAlg                     INFO Found mdt element map run 0 event 0 time  55 channel 4
IOVDbTestAlg                     INFO Found mdt element map run 0 event 0 time  65 channel 7
IOVDbTestAlg                     INFO Found mdt element map run 0 event 0 time  75 channel 10
IOVDbTestAlg                     INFO Found mdt element map run 0 event 0 time  85 channel 13
IOVDbTestAlg                     INFO Found mdt element map run 0 event 0 time  95 channel 16
IOVDbTestAlg                     INFO Found mdt element map run 0 event 0 time  105 channel 19
IOVDbTestAlg                     INFO Found mdt element map run 0 event 0 time  115 channel 22
IOVDbTestAlg                     INFO Found mdt element map run 0 event 0 time  125 channel 25
IOVDbTestAlg                     INFO Found mdt element map run 0 event 0 time  135 channel 28
IOVDbTestAlg                     INFO in finalize()
IOVDbTestAlg                    DEBUG entering registerCondObject 
IOVDbTestAlg                    DEBUG registered IOVDbTestMDTEleMap with tag MDTEleMap_COOL-TEST-001
IOVDbTestAlg                    DEBUG registered IOVDbTestAmdbCorrection with tag AmdbCorrection_COOL-TEST-001
IOVDbTestAlg                    DEBUG registered IOVDbTestMDTEleMapColl with tag MDTEleMapColl_COOL-TEST-001
IOVDbTestAlg                    DEBUG Register OK 
